{
    "Version": "2012-10-17",
    "Statement": [
        {
            "Sid": "VisualEditor0Cloudformation",
            "Effect": "Allow",
            "Action": "cloudformation:*",
            "Resource": "*"
        }
    ]
}
